# Fdb version 3
["pdflatex"] 1574114394 "code.tex" "code.pdf" "code" 1574114395
  "/usr/share/texmf-dist/fonts/map/fontname/texfonts.map" 1572595918 3332 103109f5612ad95229751940c61aada0 ""
  "/usr/share/texmf-dist/fonts/tfm/public/cm/cmbx12.tfm" 1572595918 1324 c910af8c371558dc20f2d7822f66fe64 ""
  "/usr/share/texmf-dist/fonts/tfm/public/cm/cmr12.tfm" 1572595918 1288 655e228510b4c2a1abe905c368440826 ""
  "/usr/share/texmf-dist/fonts/tfm/public/cm/cmtt10.tfm" 1572595918 768 1321e9409b4137d6fb428ac9dc956269 ""
  "/usr/share/texmf-dist/fonts/type1/public/amsfonts/cm/cmbx12.pfb" 1572595918 32080 340ef9bf63678554ee606688e7b5339d ""
  "/usr/share/texmf-dist/fonts/type1/public/amsfonts/cm/cmr10.pfb" 1572595918 35752 024fb6c41858982481f6968b5fc26508 ""
  "/usr/share/texmf-dist/fonts/type1/public/amsfonts/cm/cmr5.pfb" 1572595918 31809 8670ca339bf94e56da1fc21c80635e2a ""
  "/usr/share/texmf-dist/fonts/type1/public/amsfonts/cm/cmtt10.pfb" 1572595918 31099 c85edf1dd5b9e826d67c9c7293b6786c ""
  "/usr/share/texmf-dist/tex/context/base/mkii/supp-pdf.mkii" 1572595918 71627 94eb9990bed73c364d7f53f960cc8c5b ""
  "/usr/share/texmf-dist/tex/generic/ifxetex/ifxetex.sty" 1572595918 1458 43ab4710dc82f3edeabecd0d099626b2 ""
  "/usr/share/texmf-dist/tex/generic/oberdiek/ifpdf.sty" 1572595918 1300 96620a7d94bc0ceb261d968770ce8315 ""
  "/usr/share/texmf-dist/tex/generic/oberdiek/ifvtex.sty" 1572595918 6797 90b7f83b0ad46826bc16058b1e3d48df ""
  "/usr/share/texmf-dist/tex/generic/pgf/math/pgfmath.code.tex" 1572595918 521 c70cf6ad609de83a27ee7929eb356332 ""
  "/usr/share/texmf-dist/tex/generic/pgf/math/pgfmathcalc.code.tex" 1572595918 13391 933cab19c6d27039dbfc487330d1005a ""
  "/usr/share/texmf-dist/tex/generic/pgf/math/pgfmathfloat.code.tex" 1572595918 104938 15f2d8bdabd6bf9ca70f62cd8e3d4940 ""
  "/usr/share/texmf-dist/tex/generic/pgf/math/pgfmathfunctions.base.code.tex" 1572595918 10157 218d58ab074e5bd0d027de45ec64cc00 ""
  "/usr/share/texmf-dist/tex/generic/pgf/math/pgfmathfunctions.basic.code.tex" 1572595918 28177 7c47c337a1d5dbef1983ad718b752780 ""
  "/usr/share/texmf-dist/tex/generic/pgf/math/pgfmathfunctions.code.tex" 1572595918 9054 388d21239a1b6df2cc8beaae31c976b0 ""
  "/usr/share/texmf-dist/tex/generic/pgf/math/pgfmathfunctions.comparison.code.tex" 1572595918 3865 cddf7ddc80f018587c55afdcc79fc333 ""
  "/usr/share/texmf-dist/tex/generic/pgf/math/pgfmathfunctions.integerarithmetics.code.tex" 1572595918 3177 27d85c44fbfe09ff3b2cf2879e3ea434 ""
  "/usr/share/texmf-dist/tex/generic/pgf/math/pgfmathfunctions.misc.code.tex" 1572595918 10925 df50b8a6e5660a585e3a2bf55726dcc8 ""
  "/usr/share/texmf-dist/tex/generic/pgf/math/pgfmathfunctions.random.code.tex" 1572595918 7787 1750fc3f164703caf31fc8ea9218c67e ""
  "/usr/share/texmf-dist/tex/generic/pgf/math/pgfmathfunctions.round.code.tex" 1572595918 3379 cbd0948a550bd7a495a160ca6beee9ed ""
  "/usr/share/texmf-dist/tex/generic/pgf/math/pgfmathfunctions.trigonometric.code.tex" 1572595918 92405 bba89470858d7b0788a9c09331c39653 ""
  "/usr/share/texmf-dist/tex/generic/pgf/math/pgfmathparser.code.tex" 1572595918 36525 1a0afe71ab0664595ccf348e415006df ""
  "/usr/share/texmf-dist/tex/generic/pgf/math/pgfmathutil.code.tex" 1572595918 7431 af3d75e118d051d25f998b340bda2432 ""
  "/usr/share/texmf-dist/tex/generic/pgf/pgf.revision.tex" 1572595918 465 5de5005b4b42af76f0a1bf6846c2c46e ""
  "/usr/share/texmf-dist/tex/generic/pgf/utilities/pgffor.code.tex" 1572595918 23777 cb6c8f02f87d86d621f5cb92c44f4998 ""
  "/usr/share/texmf-dist/tex/generic/pgf/utilities/pgfkeys.code.tex" 1572595918 36451 8396330cd99122375b9c7ec93aabe055 ""
  "/usr/share/texmf-dist/tex/generic/pgf/utilities/pgfkeysfiltered.code.tex" 1572595918 37439 bd44d50aef702b03193f731207931834 ""
  "/usr/share/texmf-dist/tex/generic/pgf/utilities/pgfrcs.code.tex" 1572595918 4494 7e5ace0ccf59408f2cf63219a5d36927 ""
  "/usr/share/texmf-dist/tex/generic/pgf/utilities/pgfutil-common-lists.tex" 1572595918 7250 03b2b9fb5fa38e7ca5cc3c45860fb210 ""
  "/usr/share/texmf-dist/tex/generic/pgf/utilities/pgfutil-common.tex" 1572595918 27585 2311d713b44b84f56b9f0b06b703324e ""
  "/usr/share/texmf-dist/tex/generic/pgf/utilities/pgfutil-latex.def" 1572595918 6286 1bd76fc45da9929ab2a64f51cba3ab6f ""
  "/usr/share/texmf-dist/tex/latex/base/article.cls" 1572595918 19931 9ab70b303cca263e0120c205e98dee99 ""
  "/usr/share/texmf-dist/tex/latex/base/size10.clo" 1572595918 8405 41d2bb848d0640ceaee96d90b89378b7 ""
  "/usr/share/texmf-dist/tex/latex/fancyhdr/fancyhdr.sty" 1572595918 11128 a53805799bebfed6358fc1658a18e41f ""
  "/usr/share/texmf-dist/tex/latex/geometry/geometry.sty" 1572595918 41645 0653033a985e06c69a2a9cea9a95e31a ""
  "/usr/share/texmf-dist/tex/latex/graphics-cfg/color.cfg" 1572595918 1213 620bba36b25224fa9b7e1ccb4ecb76fd ""
  "/usr/share/texmf-dist/tex/latex/graphics-def/pdftex.def" 1572595918 17334 520b9b85ad8a2a48eda3f643e27a5179 ""
  "/usr/share/texmf-dist/tex/latex/graphics/color.sty" 1572595918 7027 3fe334b366b81600335fd2c862b4b178 ""
  "/usr/share/texmf-dist/tex/latex/graphics/keyval.sty" 1572595918 2590 3aa06f747eb7e19c8d68947f1828fd06 ""
  "/usr/share/texmf-dist/tex/latex/listings/listings.cfg" 1572595918 1830 bbaba8afaf42cc048ec4d4ff73467521 ""
  "/usr/share/texmf-dist/tex/latex/listings/listings.sty" 1572595918 80511 830f3f1d3ab7448dd84233e9c2f6462c ""
  "/usr/share/texmf-dist/tex/latex/listings/lstlang1.sty" 1572595918 204271 6a0ce6b8dafb6c4a13b9036ab1717c77 ""
  "/usr/share/texmf-dist/tex/latex/listings/lstmisc.sty" 1572595918 77022 32914f01b528131c47be2a1040d3856d ""
  "/usr/share/texmf-dist/tex/latex/ms/everyshi.sty" 1572595918 3878 6aa7c08ff2621006e0603349e40a30a8 ""
  "/usr/share/texmf-dist/tex/latex/pgf/math/pgfmath.sty" 1572595918 306 0796eafca5e159e6ec2167a6d22d81b1 ""
  "/usr/share/texmf-dist/tex/latex/pgf/utilities/pgffor.sty" 1572595918 348 8927fde343487e003b01a4c2ca34073b ""
  "/usr/share/texmf-dist/tex/latex/pgf/utilities/pgfkeys.sty" 1572595918 274 4cad6e665cc93ac2ac979039a94fa1e1 ""
  "/usr/share/texmf-dist/tex/latex/pgf/utilities/pgfrcs.sty" 1572595918 325 2bcd023400636339210573e2b3ee298b ""
  "/usr/share/texmf-dist/web2c/texmf.cnf" 1572595918 33301 a3134070eacafb10b1f371612ce2650d ""
  "/var/lib/texmf/fonts/map/pdftex/updmap/pdftex.map" 1573913369 4700588 6cff29fd2f933ef89e76aa832077506f ""
  "/var/lib/texmf/web2c/pdftex/pdflatex.fmt" 1573913348 8044940 93d4878d6e0dcaa980c6c5e3c8e7032d ""
  "code.aux" 1574114395 6045 72233adeec09a34da6b4ee7fe3b3cdbe "pdflatex"
  "code.tex" 1574114385 3825 164dd23f224f652168a0f42587f5620a ""
  "code/App.java" 1574089829 3323 d2942c5d0402acb6af1e98c40be650e3 ""
  "code/AppTester.java" 1574110266 6494 e4db08e17e67749d10d92656696adece ""
  "code/ButtonAdd.java" 1574089829 517 e0188dd383020b5acf8b479d628d13c1 ""
  "code/Company.java" 1574089829 641 ba0d2aebf5fa8bb636ef948debe8fbb5 ""
  "code/Conference.java" 1574089829 5441 dc1c4b1c60675b5c0dbca12487fa494b ""
  "code/ConferenceBox.java" 1574089829 1693 aa0e908d82ac962598127ad5b5279dd7 ""
  "code/ConferenceCreatePane.java" 1574109992 9813 63c4fd4ef3dbc52858db13d8dac5cd03 ""
  "code/ConferenceHotelPane.java" 1574110504 2613 6f8369179ede4378285ba5276d754622 ""
  "code/ConferenceListPane.java" 1574110202 1430 df56e6e90b85fc82f02cc0350b9ae15c ""
  "code/ConferencePane.java" 1574089829 6697 8bb7c575895579568502f8521c9946fa ""
  "code/ControllerGUI.java" 1574110178 4544 477e03f5daa4f650d92d96597328becc ""
  "code/ControllerStorage.java" 1574089829 11804 7449a01407695f57ca3543a2fc3c6f96 ""
  "code/Excursion.java" 1574089829 4143 7040adea6e5aef8511c8d69492eb35a0 ""
  "code/ExcursionCreateWindow.java" 1574089829 5840 41fe268c29c4a29e9a0f54540b674d90 ""
  "code/ExcursionPane.java" 1574089829 5311 3162e7298b444273703867467caec77e ""
  "code/HelpPane.java" 1574103115 3317 899b3b2f241a9d4d45c927ee054ebdf4 ""
  "code/Hotel.java" 1574089829 2472 27c1fe78c1713945f23a78bc7014957b ""
  "code/HotelBox.java" 1574110221 981 bfeedb6c81a1dd86c8df1999418ffcf3 ""
  "code/HotelCreatePane.java" 1574108687 7213 b2bc9bf6917ecfe27c909c18014d72eb ""
  "code/HotelListPane.java" 1574110230 1346 cd014c3f59cf70467871c5f519d8027e ""
  "code/HotelPane.java" 1574099921 5784 2510ade3346446fab2a09bf4079ff7c7 ""
  "code/Participant.java" 1574089829 1168 9b3c95c42fb141c93665ef892d3bde21 ""
  "code/ParticipantPane.java" 1574098052 10905 943179503137c71633ebc3f35bdcfe0a ""
  "code/PrintReceiptPane.java" 1574110157 2565 84f7681936047aa4ef5ee4c8fa656426 ""
  "code/Registration.java" 1574089829 3877 7bacc63914694200a4cc3d100804b2ae ""
  "code/RegistrationPane.java" 1574105537 13375 8da678ea44d555b07c9165ca47cc1f79 ""
  "code/Service.java" 1574089829 1328 f4b6658368961259ad5bc58e0076d8d4 ""
  "code/Storage.java" 1574089829 4176 2d08e48bdf265fda594d6afe77c2b4c2 ""
  (generated)
  "code.aux"
  "code.log"
  "code.pdf"
