\relax 
\@writefile{toc}{\contentsline {subsection}{\numberline {0.1}tests/AppTester.java}{1}\protected@file@percent }
\@writefile{lol}{\contentsline {lstlisting}{code/AppTester.java}{1}\protected@file@percent }
\@writefile{toc}{\contentsline {subsection}{\numberline {0.2}storage/Storage.java}{5}\protected@file@percent }
\@writefile{lol}{\contentsline {lstlisting}{code/Storage.java}{5}\protected@file@percent }
\@writefile{toc}{\contentsline {subsection}{\numberline {0.3}gui/App.java}{8}\protected@file@percent }
\@writefile{lol}{\contentsline {lstlisting}{code/App.java}{8}\protected@file@percent }
\@writefile{toc}{\contentsline {subsection}{\numberline {0.4}gui/ButtonAdd.java}{10}\protected@file@percent }
\@writefile{lol}{\contentsline {lstlisting}{code/ButtonAdd.java}{10}\protected@file@percent }
\@writefile{toc}{\contentsline {subsection}{\numberline {0.5}gui/ConferenceBox.java}{11}\protected@file@percent }
\@writefile{lol}{\contentsline {lstlisting}{code/ConferenceBox.java}{11}\protected@file@percent }
\@writefile{toc}{\contentsline {subsection}{\numberline {0.6}gui/ConferenceCreatePane.java}{12}\protected@file@percent }
\@writefile{lol}{\contentsline {lstlisting}{code/ConferenceCreatePane.java}{12}\protected@file@percent }
\@writefile{toc}{\contentsline {subsection}{\numberline {0.7}gui/ConferenceHotelPane.java}{17}\protected@file@percent }
\@writefile{lol}{\contentsline {lstlisting}{code/ConferenceHotelPane.java}{17}\protected@file@percent }
\@writefile{toc}{\contentsline {subsection}{\numberline {0.8}gui/ConferenceListPane.java}{19}\protected@file@percent }
\@writefile{lol}{\contentsline {lstlisting}{code/ConferenceListPane.java}{19}\protected@file@percent }
\@writefile{toc}{\contentsline {subsection}{\numberline {0.9}gui/ConferencePane.java}{20}\protected@file@percent }
\@writefile{lol}{\contentsline {lstlisting}{code/ConferencePane.java}{20}\protected@file@percent }
\@writefile{toc}{\contentsline {subsection}{\numberline {0.10}gui/ExcursionCreateWindow.java}{24}\protected@file@percent }
\@writefile{lol}{\contentsline {lstlisting}{code/ExcursionCreateWindow.java}{24}\protected@file@percent }
\@writefile{toc}{\contentsline {subsection}{\numberline {0.11}gui/ExcursionPane.java}{28}\protected@file@percent }
\@writefile{lol}{\contentsline {lstlisting}{code/ExcursionPane.java}{28}\protected@file@percent }
\@writefile{toc}{\contentsline {subsection}{\numberline {0.12}gui/HelpPane.java}{31}\protected@file@percent }
\@writefile{lol}{\contentsline {lstlisting}{code/HelpPane.java}{31}\protected@file@percent }
\@writefile{toc}{\contentsline {subsection}{\numberline {0.13}gui/HotelBox.java}{33}\protected@file@percent }
\@writefile{lol}{\contentsline {lstlisting}{code/HotelBox.java}{33}\protected@file@percent }
\@writefile{toc}{\contentsline {subsection}{\numberline {0.14}gui/HotelCreatePane.java}{34}\protected@file@percent }
\@writefile{lol}{\contentsline {lstlisting}{code/HotelCreatePane.java}{34}\protected@file@percent }
\@writefile{toc}{\contentsline {subsection}{\numberline {0.15}gui/HotelListPane.java}{38}\protected@file@percent }
\@writefile{lol}{\contentsline {lstlisting}{code/HotelListPane.java}{38}\protected@file@percent }
\@writefile{toc}{\contentsline {subsection}{\numberline {0.16}gui/HotelPane.java}{39}\protected@file@percent }
\@writefile{lol}{\contentsline {lstlisting}{code/HotelPane.java}{39}\protected@file@percent }
\@writefile{toc}{\contentsline {subsection}{\numberline {0.17}gui/ParticipantPane.java}{43}\protected@file@percent }
\@writefile{lol}{\contentsline {lstlisting}{code/ParticipantPane.java}{43}\protected@file@percent }
\@writefile{toc}{\contentsline {subsection}{\numberline {0.18}gui/PrintReceiptPane.java}{49}\protected@file@percent }
\@writefile{lol}{\contentsline {lstlisting}{code/PrintReceiptPane.java}{49}\protected@file@percent }
\@writefile{toc}{\contentsline {subsection}{\numberline {0.19}gui/RegistrationPane.java}{51}\protected@file@percent }
\@writefile{lol}{\contentsline {lstlisting}{code/RegistrationPane.java}{51}\protected@file@percent }
\@writefile{toc}{\contentsline {subsection}{\numberline {0.20}application/controller/ControllerGUI.java}{58}\protected@file@percent }
\@writefile{lol}{\contentsline {lstlisting}{code/ControllerGUI.java}{58}\protected@file@percent }
\@writefile{toc}{\contentsline {subsection}{\numberline {0.21}application/controller/ControllerStorage.java}{61}\protected@file@percent }
\@writefile{lol}{\contentsline {lstlisting}{code/ControllerStorage.java}{61}\protected@file@percent }
\@writefile{toc}{\contentsline {subsection}{\numberline {0.22}application/model/Company.java}{67}\protected@file@percent }
\@writefile{lol}{\contentsline {lstlisting}{code/Company.java}{67}\protected@file@percent }
\@writefile{toc}{\contentsline {subsection}{\numberline {0.23}application/model/Conference.java}{68}\protected@file@percent }
\@writefile{lol}{\contentsline {lstlisting}{code/Conference.java}{68}\protected@file@percent }
\@writefile{toc}{\contentsline {subsection}{\numberline {0.24}application/model/Excursion.java}{72}\protected@file@percent }
\@writefile{lol}{\contentsline {lstlisting}{code/Excursion.java}{72}\protected@file@percent }
\@writefile{toc}{\contentsline {subsection}{\numberline {0.25}application/model/Hotel.java}{75}\protected@file@percent }
\@writefile{lol}{\contentsline {lstlisting}{code/Hotel.java}{75}\protected@file@percent }
\@writefile{toc}{\contentsline {subsection}{\numberline {0.26}application/model/Participant.java}{77}\protected@file@percent }
\@writefile{lol}{\contentsline {lstlisting}{code/Participant.java}{77}\protected@file@percent }
\@writefile{toc}{\contentsline {subsection}{\numberline {0.27}application/model/Registration.java}{79}\protected@file@percent }
\@writefile{lol}{\contentsline {lstlisting}{code/Registration.java}{79}\protected@file@percent }
\@writefile{toc}{\contentsline {subsection}{\numberline {0.28}application/model/Service.java}{82}\protected@file@percent }
\@writefile{lol}{\contentsline {lstlisting}{code/Service.java}{82}\protected@file@percent }
